{
  "javadoc-see" : "/mulestac-maven-plugin/src/main/resources/copy-template/mule-artifact.json",
  "classLoaderModelLoaderDescriptor" : {
    "attributes" : {
      "exportedPackages" : [
        "com.canda.dt0b35muletemplatetest",
        "com.canda.mule",
        "com.canda.mulestac",
        "com.canda.mulestac.changeover",
        "com.canda.mulestac.db",
        "com.canda.mulestac.ejb",
        "com.canda.mulestac.factory",
        "com.canda.mulestac.functions",
        "com.canda.mulestac.http",
        "com.canda.mulestac.java",
        "com.canda.mulestac.logging",
        "com.canda.mulestac.mule4",
        "com.canda.mulestac.mule4.logging",
        "com.canda.mulestac.mule4.notification",
        "com.canda.mulestac.objectstore",
        "com.canda.mulestac.problem",
        "com.canda.mulestac.retry",
        "com.canda.mulestac.sequence",
        "com.canda.mulestac.stream",
        "com.canda.mulestac.test",
        "com.canda.mulestac.transformers",
        "com.canda.mulestac.wmq",
        "com.canda.mulestac.xml",
        "com.google.common.base",
        "com.google.common.collect",
        "com.ibm.db2.jcc",
        "com.ibm.db2.jcc.am",
        "com.ibm.db2.jcc.am.ae",
        "com.ibm.mq.jms",
        "javax.jms",
        "org.junit",
        "org.mule.api",
        "org.mule.jms.commons.api.message",
        "org.mule.runtime.api.util",
        "org.mule.runtime.extension.api.annotation.param",
        "org.slf4j",
        "org.springframework.core.env",
        "org.springframework.core.io",
        "org.springframework.ldap.core.support",
        "org.springframework.security.authentication",
        "org.springframework.security.ldap",
        "org.springframework.security.ldap.authentication",
        "org.springframework.security.ldap.search",
        "org.springframework.security.ldap.userdetails"
      ]
    },
    "id" : "mule"
  },
  "minMuleVersion" : "4.2.2"
}